\relax 
\providecommand\hyper@newdestlabel[2]{}
\providecommand\HyperFirstAtBeginDocument{\AtBeginDocument}
\HyperFirstAtBeginDocument{\ifx\hyper@anchor\@undefined
\global\let\oldcontentsline\contentsline
\gdef\contentsline#1#2#3#4{\oldcontentsline{#1}{#2}{#3}}
\global\let\oldnewlabel\newlabel
\gdef\newlabel#1#2{\newlabelxx{#1}#2}
\gdef\newlabelxx#1#2#3#4#5#6{\oldnewlabel{#1}{{#2}{#3}}}
\AtEndDocument{\ifx\hyper@anchor\@undefined
\let\contentsline\oldcontentsline
\let\newlabel\oldnewlabel
\fi}
\fi}
\global\let\hyper@last\relax 
\gdef\HyperFirstAtBeginDocument#1{#1}
\providecommand\HyField@AuxAddToFields[1]{}
\providecommand\HyField@AuxAddToCoFields[2]{}
\select@language{vietnam}
\@writefile{toc}{\select@language{vietnam}}
\@writefile{lof}{\select@language{vietnam}}
\@writefile{lot}{\select@language{vietnam}}
\@writefile{nav}{\headcommand {\slideentry {0}{0}{1}{1/1}{}{0}}}
\@writefile{nav}{\headcommand {\beamer@framepages {1}{1}}}
\@writefile{nav}{\headcommand {\slideentry {0}{0}{2}{2/2}{}{0}}}
\@writefile{nav}{\headcommand {\beamer@framepages {2}{2}}}
\@writefile{toc}{\beamer@sectionintoc {1}{T\IeC {\h \ocircumflex }ng quan v\IeC {\`\ecircumflex } Oracle Database Administration}{3}{0}{1}}
\@writefile{nav}{\headcommand {\sectionentry {1}{T\IeC {\h \ocircumflex }ng quan v\IeC {\`\ecircumflex } Oracle Database Administration}{3}{T\IeC {\h \ocircumflex }ng quan v\IeC {\`\ecircumflex } Oracle Database Administration}{0}}}
\@writefile{nav}{\headcommand {\beamer@sectionpages {1}{2}}}
\@writefile{nav}{\headcommand {\beamer@subsectionpages {1}{2}}}
\@writefile{nav}{\headcommand {\slideentry {1}{0}{1}{3/3}{}{0}}}
\@writefile{nav}{\headcommand {\beamer@framepages {3}{3}}}
\@writefile{nav}{\headcommand {\slideentry {1}{0}{2}{4/4}{}{0}}}
\@writefile{nav}{\headcommand {\beamer@framepages {4}{4}}}
\@writefile{nav}{\headcommand {\slideentry {1}{0}{3}{5/5}{}{0}}}
\@writefile{nav}{\headcommand {\beamer@framepages {5}{5}}}
\@writefile{toc}{\beamer@sectionintoc {2}{C\IeC {\'a}c b\IeC {\uhorn }\IeC {\'\ohorn }c c\IeC {\`a}i \IeC {\dj }\IeC {\d \abreve }t Oracle Database Managerment System}{6}{0}{2}}
\@writefile{nav}{\headcommand {\sectionentry {2}{C\IeC {\'a}c b\IeC {\uhorn }\IeC {\'\ohorn }c c\IeC {\`a}i \IeC {\dj }\IeC {\d \abreve }t Oracle Database Managerment System}{6}{C\IeC {\'a}c b\IeC {\uhorn }\IeC {\'\ohorn }c c\IeC {\`a}i \IeC {\dj }\IeC {\d \abreve }t Oracle Database Managerment System}{0}}}
\@writefile{nav}{\headcommand {\beamer@sectionpages {3}{5}}}
\@writefile{nav}{\headcommand {\beamer@subsectionpages {3}{5}}}
\@writefile{nav}{\headcommand {\slideentry {2}{0}{1}{6/6}{}{0}}}
\@writefile{nav}{\headcommand {\beamer@framepages {6}{6}}}
\@writefile{nav}{\headcommand {\slideentry {2}{0}{2}{7/7}{}{0}}}
\@writefile{nav}{\headcommand {\beamer@framepages {7}{7}}}
\@writefile{nav}{\headcommand {\slideentry {2}{0}{3}{8/8}{}{0}}}
\@writefile{nav}{\headcommand {\beamer@framepages {8}{8}}}
\@writefile{nav}{\headcommand {\slideentry {2}{0}{4}{9/9}{}{0}}}
\@writefile{nav}{\headcommand {\beamer@framepages {9}{9}}}
\@writefile{nav}{\headcommand {\slideentry {2}{0}{5}{10/10}{}{0}}}
\@writefile{nav}{\headcommand {\beamer@framepages {10}{10}}}
\@writefile{nav}{\headcommand {\slideentry {2}{0}{6}{11/11}{}{0}}}
\@writefile{nav}{\headcommand {\beamer@framepages {11}{11}}}
\@writefile{nav}{\headcommand {\slideentry {2}{0}{7}{12/12}{}{0}}}
\@writefile{nav}{\headcommand {\beamer@framepages {12}{12}}}
\@writefile{nav}{\headcommand {\slideentry {2}{0}{8}{13/13}{}{0}}}
\@writefile{nav}{\headcommand {\beamer@framepages {13}{13}}}
\@writefile{nav}{\headcommand {\slideentry {2}{0}{9}{14/14}{}{0}}}
\@writefile{nav}{\headcommand {\beamer@framepages {14}{14}}}
\@writefile{nav}{\headcommand {\slideentry {2}{0}{10}{15/15}{}{0}}}
\@writefile{nav}{\headcommand {\beamer@framepages {15}{15}}}
\@writefile{nav}{\headcommand {\slideentry {2}{0}{11}{16/16}{}{0}}}
\@writefile{nav}{\headcommand {\beamer@framepages {16}{16}}}
\@writefile{nav}{\headcommand {\slideentry {2}{0}{12}{17/17}{}{0}}}
\@writefile{nav}{\headcommand {\beamer@framepages {17}{17}}}
\@writefile{nav}{\headcommand {\slideentry {2}{0}{13}{18/18}{}{0}}}
\@writefile{nav}{\headcommand {\beamer@framepages {18}{18}}}
\@writefile{nav}{\headcommand {\slideentry {2}{0}{14}{19/19}{}{0}}}
\@writefile{nav}{\headcommand {\beamer@framepages {19}{19}}}
\@writefile{nav}{\headcommand {\slideentry {2}{0}{15}{20/20}{}{0}}}
\@writefile{nav}{\headcommand {\beamer@framepages {20}{20}}}
\@writefile{nav}{\headcommand {\slideentry {2}{0}{16}{21/21}{}{0}}}
\@writefile{nav}{\headcommand {\beamer@framepages {21}{21}}}
\@writefile{nav}{\headcommand {\slideentry {2}{0}{17}{22/22}{}{0}}}
\@writefile{nav}{\headcommand {\beamer@framepages {22}{22}}}
\@writefile{nav}{\headcommand {\slideentry {2}{0}{18}{23/23}{}{0}}}
\@writefile{nav}{\headcommand {\beamer@framepages {23}{23}}}
\@writefile{nav}{\headcommand {\slideentry {2}{0}{19}{24/24}{}{0}}}
\@writefile{nav}{\headcommand {\beamer@framepages {24}{24}}}
\@writefile{nav}{\headcommand {\slideentry {2}{0}{20}{25/25}{}{0}}}
\@writefile{nav}{\headcommand {\beamer@framepages {25}{25}}}
\@writefile{nav}{\headcommand {\slideentry {2}{0}{21}{26/26}{}{0}}}
\@writefile{nav}{\headcommand {\beamer@framepages {26}{26}}}
\@writefile{nav}{\headcommand {\slideentry {2}{0}{22}{27/27}{}{0}}}
\@writefile{nav}{\headcommand {\beamer@framepages {27}{27}}}
\@writefile{nav}{\headcommand {\slideentry {2}{0}{23}{28/28}{}{0}}}
\@writefile{nav}{\headcommand {\beamer@framepages {28}{28}}}
\@writefile{nav}{\headcommand {\slideentry {2}{0}{24}{29/29}{}{0}}}
\@writefile{nav}{\headcommand {\beamer@framepages {29}{29}}}
\@writefile{nav}{\headcommand {\slideentry {2}{0}{25}{30/30}{}{0}}}
\@writefile{nav}{\headcommand {\beamer@framepages {30}{30}}}
\@writefile{toc}{\beamer@sectionintoc {3}{T\IeC {\d a}o m\IeC {\d \ocircumflex }t database m\IeC {\'\ohorn }i trong Oracle}{31}{0}{3}}
\@writefile{nav}{\headcommand {\sectionentry {3}{T\IeC {\d a}o m\IeC {\d \ocircumflex }t database m\IeC {\'\ohorn }i trong Oracle}{31}{T\IeC {\d a}o m\IeC {\d \ocircumflex }t database m\IeC {\'\ohorn }i trong Oracle}{0}}}
\@writefile{nav}{\headcommand {\beamer@sectionpages {6}{30}}}
\@writefile{nav}{\headcommand {\beamer@subsectionpages {6}{30}}}
\@writefile{nav}{\headcommand {\slideentry {3}{0}{1}{31/31}{}{0}}}
\@writefile{nav}{\headcommand {\beamer@framepages {31}{31}}}
\@writefile{nav}{\headcommand {\slideentry {3}{0}{2}{32/32}{}{0}}}
\@writefile{nav}{\headcommand {\beamer@framepages {32}{32}}}
\@writefile{nav}{\headcommand {\slideentry {3}{0}{3}{33/33}{}{0}}}
\@writefile{nav}{\headcommand {\beamer@framepages {33}{33}}}
\@writefile{nav}{\headcommand {\slideentry {3}{0}{4}{34/34}{}{0}}}
\@writefile{nav}{\headcommand {\beamer@framepages {34}{34}}}
\@writefile{nav}{\headcommand {\slideentry {3}{0}{5}{35/35}{}{0}}}
\@writefile{nav}{\headcommand {\beamer@framepages {35}{35}}}
\@writefile{nav}{\headcommand {\slideentry {3}{0}{6}{36/36}{}{0}}}
\@writefile{nav}{\headcommand {\beamer@framepages {36}{36}}}
\@writefile{nav}{\headcommand {\slideentry {3}{0}{7}{37/37}{}{0}}}
\@writefile{nav}{\headcommand {\beamer@framepages {37}{37}}}
\@writefile{nav}{\headcommand {\slideentry {3}{0}{8}{38/38}{}{0}}}
\@writefile{nav}{\headcommand {\beamer@framepages {38}{38}}}
\@writefile{toc}{\beamer@sectionintoc {4}{S\IeC {\h \uhorn }a \IeC {\dj }\IeC {\h \ocircumflex }i m\IeC {\d \ocircumflex }t Database}{39}{0}{4}}
\@writefile{nav}{\headcommand {\sectionentry {4}{S\IeC {\h \uhorn }a \IeC {\dj }\IeC {\h \ocircumflex }i m\IeC {\d \ocircumflex }t Database}{39}{S\IeC {\h \uhorn }a \IeC {\dj }\IeC {\h \ocircumflex }i m\IeC {\d \ocircumflex }t Database}{0}}}
\@writefile{nav}{\headcommand {\beamer@sectionpages {31}{38}}}
\@writefile{nav}{\headcommand {\beamer@subsectionpages {31}{38}}}
\@writefile{nav}{\headcommand {\slideentry {4}{0}{1}{39/39}{}{0}}}
\@writefile{nav}{\headcommand {\beamer@framepages {39}{39}}}
\@writefile{nav}{\headcommand {\slideentry {4}{0}{2}{40/40}{}{0}}}
\@writefile{nav}{\headcommand {\beamer@framepages {40}{40}}}
\@writefile{nav}{\headcommand {\slideentry {4}{0}{3}{41/41}{}{0}}}
\@writefile{nav}{\headcommand {\beamer@framepages {41}{41}}}
\@writefile{nav}{\headcommand {\slideentry {4}{0}{4}{42/42}{}{0}}}
\@writefile{nav}{\headcommand {\beamer@framepages {42}{42}}}
\@writefile{nav}{\headcommand {\slideentry {4}{0}{5}{43/43}{}{0}}}
\@writefile{nav}{\headcommand {\beamer@framepages {43}{43}}}
\@writefile{nav}{\headcommand {\slideentry {4}{0}{6}{44/44}{}{0}}}
\@writefile{nav}{\headcommand {\beamer@framepages {44}{44}}}
\@writefile{nav}{\headcommand {\slideentry {4}{0}{7}{45/45}{}{0}}}
\@writefile{nav}{\headcommand {\beamer@framepages {45}{45}}}
\@writefile{nav}{\headcommand {\slideentry {4}{0}{8}{46/46}{}{0}}}
\@writefile{nav}{\headcommand {\beamer@framepages {46}{46}}}
\@writefile{toc}{\beamer@sectionintoc {5}{C\IeC {\'\acircumflex }p ph\IeC {\'e}p truy c\IeC {\d \acircumflex }p v\IeC {\`a}o Database}{47}{0}{5}}
\@writefile{nav}{\headcommand {\sectionentry {5}{C\IeC {\'\acircumflex }p ph\IeC {\'e}p truy c\IeC {\d \acircumflex }p v\IeC {\`a}o Database}{47}{C\IeC {\'\acircumflex }p ph\IeC {\'e}p truy c\IeC {\d \acircumflex }p v\IeC {\`a}o Database}{0}}}
\@writefile{nav}{\headcommand {\beamer@sectionpages {39}{46}}}
\@writefile{nav}{\headcommand {\beamer@subsectionpages {39}{46}}}
\@writefile{nav}{\headcommand {\slideentry {5}{0}{1}{47/47}{}{0}}}
\@writefile{nav}{\headcommand {\beamer@framepages {47}{47}}}
\@writefile{nav}{\headcommand {\slideentry {5}{0}{2}{48/48}{}{0}}}
\@writefile{nav}{\headcommand {\beamer@framepages {48}{48}}}
\@writefile{nav}{\headcommand {\slideentry {5}{0}{3}{49/49}{}{0}}}
\@writefile{nav}{\headcommand {\beamer@framepages {49}{49}}}
\@writefile{nav}{\headcommand {\slideentry {5}{0}{4}{50/50}{}{0}}}
\@writefile{nav}{\headcommand {\beamer@framepages {50}{50}}}
\@writefile{nav}{\headcommand {\slideentry {5}{0}{5}{51/51}{}{0}}}
\@writefile{nav}{\headcommand {\beamer@framepages {51}{51}}}
\@writefile{nav}{\headcommand {\slideentry {5}{0}{6}{52/52}{}{0}}}
\@writefile{nav}{\headcommand {\beamer@framepages {52}{52}}}
\@writefile{nav}{\headcommand {\slideentry {5}{0}{7}{53/53}{}{0}}}
\@writefile{nav}{\headcommand {\beamer@framepages {53}{53}}}
\@writefile{toc}{\beamer@sectionintoc {6}{\IeC {\DJ }\IeC {\u a}ng k\IeC {\'\i } ng\IeC {\uhorn }\IeC {\`\ohorn }i d\IeC {\`u}ng v\IeC {\`a} b\IeC {\h a}o m\IeC {\d \acircumflex }t h\IeC {\d \ecircumflex } th\IeC {\'\ocircumflex }ng}{54}{0}{6}}
\@writefile{nav}{\headcommand {\sectionentry {6}{\IeC {\DJ }\IeC {\u a}ng k\IeC {\'\i } ng\IeC {\uhorn }\IeC {\`\ohorn }i d\IeC {\`u}ng v\IeC {\`a} b\IeC {\h a}o m\IeC {\d \acircumflex }t h\IeC {\d \ecircumflex } th\IeC {\'\ocircumflex }ng}{54}{\IeC {\DJ }\IeC {\u a}ng k\IeC {\'\i } ng\IeC {\uhorn }\IeC {\`\ohorn }i d\IeC {\`u}ng v\IeC {\`a} b\IeC {\h a}o m\IeC {\d \acircumflex }t h\IeC {\d \ecircumflex } th\IeC {\'\ocircumflex }ng}{0}}}
\@writefile{nav}{\headcommand {\beamer@sectionpages {47}{53}}}
\@writefile{nav}{\headcommand {\beamer@subsectionpages {47}{53}}}
\@writefile{nav}{\headcommand {\slideentry {6}{0}{1}{54/54}{}{0}}}
\@writefile{nav}{\headcommand {\beamer@framepages {54}{54}}}
\@writefile{nav}{\headcommand {\slideentry {6}{0}{2}{55/55}{}{0}}}
\@writefile{nav}{\headcommand {\beamer@framepages {55}{55}}}
\@writefile{nav}{\headcommand {\slideentry {6}{0}{3}{56/56}{}{0}}}
\@writefile{nav}{\headcommand {\beamer@framepages {56}{56}}}
\@writefile{nav}{\headcommand {\slideentry {6}{0}{4}{57/57}{}{0}}}
\@writefile{nav}{\headcommand {\beamer@framepages {57}{57}}}
\@writefile{nav}{\headcommand {\slideentry {6}{0}{5}{58/58}{}{0}}}
\@writefile{nav}{\headcommand {\beamer@framepages {58}{58}}}
\@writefile{nav}{\headcommand {\slideentry {6}{0}{6}{59/59}{}{0}}}
\@writefile{nav}{\headcommand {\beamer@framepages {59}{59}}}
\@writefile{nav}{\headcommand {\slideentry {6}{0}{7}{60/60}{}{0}}}
\@writefile{nav}{\headcommand {\beamer@framepages {60}{60}}}
\@writefile{nav}{\headcommand {\slideentry {6}{0}{8}{61/61}{}{0}}}
\@writefile{nav}{\headcommand {\beamer@framepages {61}{61}}}
\@writefile{nav}{\headcommand {\slideentry {6}{0}{9}{62/62}{}{0}}}
\@writefile{nav}{\headcommand {\beamer@framepages {62}{62}}}
\@writefile{nav}{\headcommand {\slideentry {6}{0}{10}{63/63}{}{0}}}
\@writefile{nav}{\headcommand {\beamer@framepages {63}{63}}}
\@writefile{toc}{\beamer@sectionintoc {7}{Ki\IeC {\h \ecircumflex }m so\IeC {\'a}t v\IeC {\`a} theo d\IeC {\~o}i ng\IeC {\uhorn }\IeC {\`\ohorn }i d\IeC {\`u}ng}{64}{0}{7}}
\@writefile{nav}{\headcommand {\sectionentry {7}{Ki\IeC {\h \ecircumflex }m so\IeC {\'a}t v\IeC {\`a} theo d\IeC {\~o}i ng\IeC {\uhorn }\IeC {\`\ohorn }i d\IeC {\`u}ng}{64}{Ki\IeC {\h \ecircumflex }m so\IeC {\'a}t v\IeC {\`a} theo d\IeC {\~o}i ng\IeC {\uhorn }\IeC {\`\ohorn }i d\IeC {\`u}ng}{0}}}
\@writefile{nav}{\headcommand {\beamer@sectionpages {54}{63}}}
\@writefile{nav}{\headcommand {\beamer@subsectionpages {54}{63}}}
\@writefile{nav}{\headcommand {\slideentry {7}{0}{1}{64/64}{}{0}}}
\@writefile{nav}{\headcommand {\beamer@framepages {64}{64}}}
\@writefile{nav}{\headcommand {\slideentry {7}{0}{2}{65/65}{}{0}}}
\@writefile{nav}{\headcommand {\beamer@framepages {65}{65}}}
\@writefile{nav}{\headcommand {\slideentry {7}{0}{3}{66/66}{}{0}}}
\@writefile{nav}{\headcommand {\beamer@framepages {66}{66}}}
\@writefile{nav}{\headcommand {\slideentry {7}{0}{4}{67/67}{}{0}}}
\@writefile{nav}{\headcommand {\beamer@framepages {67}{67}}}
\@writefile{nav}{\headcommand {\slideentry {7}{0}{5}{68/68}{}{0}}}
\@writefile{nav}{\headcommand {\beamer@framepages {68}{68}}}
\@writefile{nav}{\headcommand {\slideentry {7}{0}{6}{69/69}{}{0}}}
\@writefile{nav}{\headcommand {\beamer@framepages {69}{69}}}
\@writefile{nav}{\headcommand {\slideentry {7}{0}{7}{70/70}{}{0}}}
\@writefile{nav}{\headcommand {\beamer@framepages {70}{70}}}
\@writefile{nav}{\headcommand {\slideentry {7}{0}{8}{71/71}{}{0}}}
\@writefile{nav}{\headcommand {\beamer@framepages {71}{71}}}
\@writefile{toc}{\beamer@sectionintoc {8}{Gi\IeC {\'a}m s\IeC {\'a}t v\IeC {\`a} t\IeC {\'\ocircumflex }i \IeC {\uhorn }u h\IeC {\'o}a CSDL}{72}{0}{8}}
\@writefile{nav}{\headcommand {\sectionentry {8}{Gi\IeC {\'a}m s\IeC {\'a}t v\IeC {\`a} t\IeC {\'\ocircumflex }i \IeC {\uhorn }u h\IeC {\'o}a CSDL}{72}{Gi\IeC {\'a}m s\IeC {\'a}t v\IeC {\`a} t\IeC {\'\ocircumflex }i \IeC {\uhorn }u h\IeC {\'o}a CSDL}{0}}}
\@writefile{nav}{\headcommand {\beamer@sectionpages {64}{71}}}
\@writefile{nav}{\headcommand {\beamer@subsectionpages {64}{71}}}
\@writefile{nav}{\headcommand {\slideentry {8}{0}{1}{72/72}{}{0}}}
\@writefile{nav}{\headcommand {\beamer@framepages {72}{72}}}
\@writefile{nav}{\headcommand {\slideentry {8}{0}{2}{73/73}{}{0}}}
\@writefile{nav}{\headcommand {\beamer@framepages {73}{73}}}
\@writefile{nav}{\headcommand {\slideentry {8}{0}{3}{74/74}{}{0}}}
\@writefile{nav}{\headcommand {\beamer@framepages {74}{74}}}
\@writefile{nav}{\headcommand {\slideentry {8}{0}{4}{75/75}{}{0}}}
\@writefile{nav}{\headcommand {\beamer@framepages {75}{75}}}
\@writefile{nav}{\headcommand {\slideentry {8}{0}{5}{76/76}{}{0}}}
\@writefile{nav}{\headcommand {\beamer@framepages {76}{76}}}
\@writefile{nav}{\headcommand {\slideentry {8}{0}{6}{77/77}{}{0}}}
\@writefile{nav}{\headcommand {\beamer@framepages {77}{77}}}
\@writefile{nav}{\headcommand {\slideentry {8}{0}{7}{78/78}{}{0}}}
\@writefile{nav}{\headcommand {\beamer@framepages {78}{78}}}
\@writefile{nav}{\headcommand {\slideentry {8}{0}{8}{79/79}{}{0}}}
\@writefile{nav}{\headcommand {\beamer@framepages {79}{79}}}
\@writefile{nav}{\headcommand {\slideentry {8}{0}{9}{80/80}{}{0}}}
\@writefile{nav}{\headcommand {\beamer@framepages {80}{80}}}
\@writefile{nav}{\headcommand {\slideentry {8}{0}{10}{81/81}{}{0}}}
\@writefile{nav}{\headcommand {\beamer@framepages {81}{81}}}
\@writefile{nav}{\headcommand {\slideentry {8}{0}{11}{82/82}{}{0}}}
\@writefile{nav}{\headcommand {\beamer@framepages {82}{82}}}
\@writefile{nav}{\headcommand {\slideentry {8}{0}{12}{83/83}{}{0}}}
\@writefile{nav}{\headcommand {\beamer@framepages {83}{83}}}
\@writefile{nav}{\headcommand {\slideentry {8}{0}{13}{84/84}{}{0}}}
\@writefile{nav}{\headcommand {\beamer@framepages {84}{84}}}
\@writefile{nav}{\headcommand {\slideentry {8}{0}{14}{85/85}{}{0}}}
\@writefile{nav}{\headcommand {\beamer@framepages {85}{85}}}
\@writefile{nav}{\headcommand {\slideentry {8}{0}{15}{86/86}{}{0}}}
\@writefile{nav}{\headcommand {\beamer@framepages {86}{86}}}
\@writefile{nav}{\headcommand {\slideentry {8}{0}{16}{87/87}{}{0}}}
\@writefile{nav}{\headcommand {\beamer@framepages {87}{87}}}
\@writefile{nav}{\headcommand {\slideentry {8}{0}{17}{88/88}{}{0}}}
\@writefile{nav}{\headcommand {\beamer@framepages {88}{88}}}
\@writefile{nav}{\headcommand {\slideentry {8}{0}{18}{89/89}{}{0}}}
\@writefile{nav}{\headcommand {\beamer@framepages {89}{89}}}
\@writefile{nav}{\headcommand {\slideentry {8}{0}{19}{90/90}{}{0}}}
\@writefile{nav}{\headcommand {\beamer@framepages {90}{90}}}
\@writefile{nav}{\headcommand {\slideentry {8}{0}{20}{91/91}{}{0}}}
\@writefile{nav}{\headcommand {\beamer@framepages {91}{91}}}
\@writefile{toc}{\beamer@sectionintoc {9}{Sao l\IeC {\uhorn }u v\IeC {\`a} kh\IeC {\^o}i ph\IeC {\d u}c CSDL}{92}{0}{9}}
\@writefile{nav}{\headcommand {\sectionentry {9}{Sao l\IeC {\uhorn }u v\IeC {\`a} kh\IeC {\^o}i ph\IeC {\d u}c CSDL}{92}{Sao l\IeC {\uhorn }u v\IeC {\`a} kh\IeC {\^o}i ph\IeC {\d u}c CSDL}{0}}}
\@writefile{nav}{\headcommand {\beamer@sectionpages {72}{91}}}
\@writefile{nav}{\headcommand {\beamer@subsectionpages {72}{91}}}
\@writefile{nav}{\headcommand {\slideentry {9}{0}{1}{92/92}{}{0}}}
\@writefile{nav}{\headcommand {\beamer@framepages {92}{92}}}
\@writefile{nav}{\headcommand {\slideentry {9}{0}{2}{93/93}{}{0}}}
\@writefile{nav}{\headcommand {\beamer@framepages {93}{93}}}
\@writefile{nav}{\headcommand {\slideentry {9}{0}{3}{94/94}{}{0}}}
\@writefile{nav}{\headcommand {\beamer@framepages {94}{94}}}
\@writefile{nav}{\headcommand {\slideentry {9}{0}{4}{95/95}{}{0}}}
\@writefile{nav}{\headcommand {\beamer@framepages {95}{95}}}
\@writefile{toc}{\beamer@sectionintoc {10}{Demo}{96}{0}{10}}
\@writefile{nav}{\headcommand {\sectionentry {10}{Demo}{96}{Demo}{0}}}
\@writefile{nav}{\headcommand {\beamer@sectionpages {92}{95}}}
\@writefile{nav}{\headcommand {\beamer@subsectionpages {92}{95}}}
\@writefile{nav}{\headcommand {\slideentry {10}{0}{1}{96/96}{}{0}}}
\@writefile{nav}{\headcommand {\beamer@framepages {96}{96}}}
\@writefile{nav}{\headcommand {\slideentry {10}{0}{2}{97/97}{}{0}}}
\@writefile{nav}{\headcommand {\beamer@framepages {97}{97}}}
\@writefile{nav}{\headcommand {\slideentry {10}{0}{3}{98/98}{}{0}}}
\@writefile{nav}{\headcommand {\beamer@framepages {98}{98}}}
\@writefile{nav}{\headcommand {\beamer@partpages {1}{98}}}
\@writefile{nav}{\headcommand {\beamer@subsectionpages {96}{98}}}
\@writefile{nav}{\headcommand {\beamer@sectionpages {96}{98}}}
\@writefile{nav}{\headcommand {\beamer@documentpages {98}}}
\@writefile{nav}{\headcommand {\def \inserttotalframenumber {82}}}
